<?xml version="1.0" encoding="UTF-8"?>
<svg width="103px" height="103px" viewBox="0 0 103 103" version="1.1" xmlns="http://www.w3.org/2000/svg" xmlns:xlink="http://www.w3.org/1999/xlink">
    <!-- Generator: Sketch 49.3 (51167) - http://www.bohemiancoding.com/sketch -->
    <title>book</title>
    <desc>Created with Sketch.</desc>
    <defs></defs>
    <g id="Page-1" stroke="none" stroke-width="1" fill="none" fill-rule="evenodd">
        <g id="главная" transform="translate(-244.000000, -1813.000000)" fill-rule="nonzero">
            <g id="Group-8" transform="translate(195.000000, 1813.000000)">
                <g id="доп-услуги">
                    <g id="Group-11">
                        <g id="Group-6">
                            <g id="book" transform="translate(49.000000, 0.000000)">
                                <circle id="Oval" fill="#B3DEDE" cx="51.5" cy="51.5" r="51.5"></circle>
                                <path d="M16.1838187,22.5 C16.1838187,19.5270611 18.6407657,17.1621011 21.575335,17.1621011 L86,17.1621011 L86,15 L21.575335,15 C17.4123929,15 14,18.3784574 14,22.5 C14,26.6215426 17.4123929,30 21.575335,30 L86,30 L86,27.8378989 L21.575335,27.8378989 C18.6407657,27.9054521 16.1838187,25.4729389 16.1838187,22.5 Z" id="Shape" fill="#F8B517"></path>
                                <path d="M21.3876866,17 C18.3877906,17 15.9332206,19.436779 16.0013863,22.5 C16.0013863,25.563221 18.3877906,28 21.3876866,28 C42.5918581,28 63.7958285,28 85,28 C81.6590742,25.0759884 81.6590742,19.854407 85,17 C63.8639943,17 42.6600239,17 21.3876866,17 Z" id="Shape" fill="#FCFCFD"></path>
                                <path d="M14,22 L14,86.031018 C18.2360049,90.4871922 23.3055707,94.2577545 29,97 L29,29.7871358 L21.2214469,29.7871358 C16.9852372,29.7871358 14,26.2505513 14,22 Z" id="Shape" fill="#D54232"></path>
                                <path d="M29,97.7020989 C35.8018533,101.073527 43.4199611,103 51.5143009,103 C64.8459895,103 76.9533967,97.839878 86,89.4459038 L86,30 L29,30 L29,97.7020989 Z" id="Shape" fill="#F0582F"></path>
                            </g>
                        </g>
                    </g>
                </g>
            </g>
        </g>
    </g>
</svg>