<?xml version="1.0" encoding="UTF-8"?>
<svg width="39px" height="40px" viewBox="0 0 39 40" version="1.1" xmlns="http://www.w3.org/2000/svg" xmlns:xlink="http://www.w3.org/1999/xlink">
    <!-- Generator: Sketch 50 (54983) - http://www.bohemiancoding.com/sketch -->
    <title>lever-machine</title>
    <desc>Created with Sketch.</desc>
    <defs></defs>
    <g id="Page-1" stroke="none" stroke-width="1" fill="none" fill-rule="evenodd">
        <g id="главная" transform="translate(-620.000000, -689.000000)" fill="#898989" fill-rule="nonzero">
            <g id="lever-machine" transform="translate(620.000000, 689.000000)">
                <path d="M39,28.6408194 C39,28.6066189 38.9971312,28.5724184 38.9914832,28.5387509 L37.4584608,19.4120181 C37.4079876,19.1121199 37.146298,18.8922596 36.8394246,18.8922596 L27.8404935,18.8922596 L27.8404935,17.5067402 C27.8404935,17.0075907 27.4305221,16.6014489 26.926597,16.6014489 C26.4226719,16.6014489 26.0127005,17.0075907 26.0127005,17.5067402 L26.0127005,19.5140866 L26.0127005,24.7445401 L7.9016098,16.8571086 C7.95181404,16.6399133 7.97915742,16.4142789 7.97915742,16.1822486 C7.97915742,16.0390507 7.96830972,15.8983402 7.94876593,15.7603834 L26.5742708,8.43339566 L31.0655781,8.43339566 C31.4121667,8.43339566 31.6931312,8.15499483 31.6931312,7.81156865 L31.6931312,0.621827017 C31.6931312,0.278400839 31.4121667,0 31.0655781,0 L18.5145176,0 C18.1679291,0 17.8869646,0.278400839 17.8869646,0.621827017 L17.8869646,7.81156865 C17.8869646,7.82222854 17.8880404,7.8325331 17.8885783,7.84301533 L3.77311774,13.3857149 C3.76755942,13.3878468 3.76262864,13.3908671 3.75715997,13.3931768 C2.65598371,13.8493313 1.88005922,14.9275794 1.88005922,16.1823374 C1.88005922,17.2648495 2.4579459,18.2158895 3.32378978,18.7495059 C3.32818265,18.7525262 3.33221692,18.7560795 3.33669944,18.7589221 L17.5155429,27.9300711 L15.9290888,27.9300711 C15.5825002,27.9300711 15.3015358,28.2084719 15.3015358,28.5518981 L15.3015358,32.0823654 L6.64497969,32.0823654 L6.64497969,28.5518981 C6.64497969,28.2084719 6.36401524,27.9300711 6.01742666,27.9300711 L2.29478211,27.9300711 C1.94819354,27.9300711 1.66722909,28.2084719 1.66722909,28.5518981 L1.66722909,32.0823654 L0.627553026,32.0823654 C0.280964455,32.0823654 0,32.3607663 0,32.7041924 L0,33.9647246 C0,34.9241149 0.787668698,35.7045966 1.75580372,35.7045966 L4.84721957,35.7045966 C4.83771663,35.8156372 4.83171005,35.9277437 4.83171005,36.0411827 C4.83171005,38.224062 6.62409114,40 8.82734016,40 C11.0303202,40 12.8226117,38.224062 12.8226117,36.0411827 C12.8226117,35.9277437 12.8166947,35.8156372 12.8071022,35.7045966 L14.2497569,35.7045966 C14.2503845,35.7046855 26.7986658,35.7045966 26.7986658,35.7045966 C26.7890732,35.8156372 26.7831563,35.9277437 26.7831563,36.0411827 C26.7831563,38.224062 28.575627,40 30.7788761,40 C32.9818561,40 34.7740579,38.224062 34.7740579,36.0411827 C34.7740579,35.9277437 34.768141,35.8156372 34.7585484,35.7045966 L38.3723573,35.7045966 C38.7189459,35.7045966 38.9999103,35.4261958 38.9999103,35.0827696 L38.9999103,32.7041924 L38.9999103,32.7041036 L38.9999103,32.7040148 L38.9999103,28.6408194 L39,28.6408194 Z M2.92233514,29.1737251 L5.38987364,29.1737251 L5.38987364,32.0272005 L2.92233514,32.0272005 L2.92233514,29.1737251 Z M36.3077079,20.1359136 L37.7448939,28.6922534 L37.7448939,32.0821878 L27.8404935,32.0821878 L27.8404935,20.1359136 L36.3077079,20.1359136 Z M7.52032651,14.5909933 C7.27692559,14.2033286 6.94728095,13.8742932 6.55846702,13.6297375 L19.7919466,8.43339566 L23.1728437,8.43339566 L7.52032651,14.5909933 Z M30.4379355,1.24365403 L30.4379355,4.46551747 L19.141981,4.46551747 L19.141981,1.24365403 L30.4379355,1.24365403 Z M4.92942902,14.4041787 C5.91890084,14.4041787 6.72396172,15.2018051 6.72396172,16.1822486 C6.72396172,17.1626922 5.91899049,17.9603186 4.92942902,17.9603186 C3.94004685,17.9602297 3.13498597,17.1626033 3.13498597,16.1822486 C3.13507562,15.2018051 3.9399572,14.4041787 4.92942902,14.4041787 Z M6.01419925,19.0056986 C6.55963248,18.799252 7.0307455,18.442501 7.37455491,17.9859911 L26.0126108,26.1028768 L26.0126108,27.9299823 L19.8114008,27.9299823 L6.01419925,19.0056986 Z M16.5565522,29.1737251 L26.0126108,29.1737251 L26.0126108,32.0272005 L16.5565522,32.0272005 L16.5565522,29.1737251 Z M1.75580372,34.4610314 C1.47968038,34.4610314 1.25510605,34.2384174 1.25510605,33.9648135 L1.25510605,33.3261083 L5.92356266,33.3261083 C5.60888964,33.6562096 5.35078605,34.0394327 5.16485105,34.4610314 L1.75580372,34.4610314 Z M8.82742981,38.7564348 L8.82725051,38.7564348 C7.31628213,38.7564348 6.08690575,37.5383645 6.08690575,36.0412715 C6.08690575,34.5440009 7.31628213,33.3259306 8.82725051,33.3259306 C10.3382189,33.3259306 11.5675953,34.5440898 11.5675953,36.0412715 C11.5675953,37.5383645 10.3383085,38.7564348 8.82742981,38.7564348 Z M14.4626767,34.4610314 L12.9681143,33.3261083 L27.8749193,33.3261083 C27.5603359,33.6562096 27.3022323,34.0394327 27.1162076,34.4610314 L14.4626767,34.4610314 Z M30.7789657,38.7564348 L30.7787864,38.7564348 C29.2677284,38.7564348 28.038352,37.5383645 28.038352,36.0412715 C28.038352,34.5440009 29.2677284,33.3259306 30.7787864,33.3259306 C32.2897548,33.3259306 33.5190415,34.5440898 33.5190415,36.0412715 C33.5191312,37.5383645 32.2899341,38.7564348 30.7789657,38.7564348 Z M37.7448939,34.4610314 L36.1865901,34.4610314 L34.6920278,33.3261083 L37.7448939,33.3261083 L37.7448939,34.4610314 Z" id="Shape"></path>
                <path d="M30.6448245,29 L35.3551755,29 C35.7113029,29 36,28.7112253 36,28.3550022 L36,26.8890143 C36,26.8535394 35.9970522,26.8180645 35.9912488,26.7831425 L35.1188012,21.5390339 C35.0669389,21.2279607 34.7980471,21 34.4827279,21 L30.6448245,21 C30.2886971,21 30,21.2887747 30,21.6449978 L30,28.3550943 C30,28.7112253 30.2886971,29 30.6448245,29 Z M31.289649,27.7100044 L31.289649,24.5023381 L34.710351,27.011656 L34.710351,27.7099122 L31.289649,27.7099122 L31.289649,27.7100044 Z" id="Shape"></path>
                <path d="M9,35 C8.44863916,35 8,35.4486392 8,36 C8,36.5513608 8.44863916,37 9,37 C9.55136084,37 10,36.5513608 10,36 C10,35.4486392 9.55136084,35 9,35 Z" id="Shape"></path>
                <path d="M31.0000399,35 C30.4486213,35 30,35.4486392 30,36 C30,36.5513608 30.4486213,37 31.0000399,37 C31.5513787,37 32,36.5513608 32,36 C32,35.4486392 31.5513787,35 31.0000399,35 Z" id="Shape"></path>
            </g>
        </g>
    </g>
</svg>